Postman do not export body

Post http://localhost:5100/MeterApiGateway/MeterReading
{
	"MeterId" : "1234",
	"Data" : "1234567890"
}

post http://localhost:5101/frontendApiGateway/MeterConfiguration
{
	"MeterId" : "1234",
	"Config" : "1234567890"
}
